<svg xmlns="http://www.w3.org/2000/svg" viewBox="0 0 153 153">
  <title>app2-icon_1</title>
  <g id="image">
    <text transform="translate(1.5 -165.38)" font-size="22" fill="#135182" font-family="DINNextLTPro-Regular, DIN Next LT Pro">Dara can see how hard Allie and Pete are working, both on their own <tspan x="0" y="29">projects and with Teague and Reese, Panasonic’s interns. She wants to </tspan><tspan x="0" y="58">support her team and recognize them for their hard work and how they </tspan><tspan x="0" y="87">maintain Panasonic Avionic’s values. To demonstrate her support, </tspan><tspan font-family="DINNextLTPro-Bold, DIN Next LT Pro" font-weight="700"><tspan x="0" y="116">Dara should:</tspan></tspan></text>
    <g>
      <g>
        <g>
          <rect x="45.15" y="55.6" width="80" height="64" fill="#ffffff" stroke="#2093cd" stroke-linecap="round" stroke-linejoin="round" stroke-width="3"/>
          <line x1="45.15" y1="66.29" x2="125.15" y2="66.29" fill="#ffffff" stroke="#2093cd" stroke-linecap="round" stroke-linejoin="round" stroke-width="3"/>
          <g>
            <circle cx="51.71" cy="61.08" r="2.08" fill="#2093cd"/>
            <circle cx="59.89" cy="61.08" r="2.08" fill="#2093cd"/>
            <circle cx="68.07" cy="61.08" r="2.08" fill="#2093cd"/>
          </g>
        </g>
        <g>
          <g>
            <line x1="52.77" y1="77.18" x2="117.52" y2="77.18" fill="#ffffff" stroke="#2093cd" stroke-linecap="round" stroke-linejoin="round" stroke-width="3"/>
            <line x1="52.77" y1="83.81" x2="117.52" y2="83.81" fill="#ffffff" stroke="#2093cd" stroke-linecap="round" stroke-linejoin="round" stroke-width="3"/>
            <line x1="52.77" y1="90.45" x2="117.52" y2="90.45" fill="#ffffff" stroke="#2093cd" stroke-linecap="round" stroke-linejoin="round" stroke-width="3"/>
            <line x1="52.77" y1="97.08" x2="82.1" y2="97.08" fill="#ffffff" stroke="#2093cd" stroke-linecap="round" stroke-linejoin="round" stroke-width="3"/>
          </g>
          <polyline points="101.14 102.92 96.84 107.28 101.14 111.63" fill="#ffffff" stroke="#2093cd" stroke-linecap="round" stroke-linejoin="round" stroke-width="3"/>
          <polyline points="113.22 111.63 117.52 107.28 113.22 102.92" fill="#ffffff" stroke="#2093cd" stroke-linecap="round" stroke-linejoin="round" stroke-width="3"/>
        </g>
      </g>
      <g>
        <g>
          <rect x="27.85" y="33.4" width="80" height="64" fill="#fff" stroke="#2093cd" stroke-linecap="round" stroke-linejoin="round" stroke-width="3"/>
          <line x1="27.85" y1="44.08" x2="107.85" y2="44.08" fill="#ffffff" stroke="#2093cd" stroke-linecap="round" stroke-linejoin="round" stroke-width="3"/>
          <g>
            <circle cx="34.42" cy="38.87" r="2.08" fill="#2093cd"/>
            <circle cx="42.6" cy="38.87" r="2.08" fill="#2093cd"/>
            <circle cx="50.78" cy="38.87" r="2.08" fill="#2093cd"/>
          </g>
        </g>
        <g>
          <g>
            <line x1="35.48" y1="54.97" x2="100.23" y2="54.97" fill="#ffffff" stroke="#2093cd" stroke-linecap="round" stroke-linejoin="round" stroke-width="3"/>
            <line x1="35.48" y1="61.6" x2="100.23" y2="61.6" fill="#ffffff" stroke="#2093cd" stroke-linecap="round" stroke-linejoin="round" stroke-width="3"/>
            <line x1="35.48" y1="68.24" x2="100.23" y2="68.24" fill="#ffffff" stroke="#2093cd" stroke-linecap="round" stroke-linejoin="round" stroke-width="3"/>
            <line x1="35.48" y1="74.87" x2="64.81" y2="74.87" fill="#ffffff" stroke="#2093cd" stroke-linecap="round" stroke-linejoin="round" stroke-width="3"/>
          </g>
          <polyline points="83.85 80.71 79.55 85.07 83.85 89.42" fill="#ffffff" stroke="#2093cd" stroke-linecap="round" stroke-linejoin="round" stroke-width="3"/>
          <polyline points="95.93 89.42 100.23 85.07 95.93 80.71" fill="#ffffff" stroke="#2093cd" stroke-linecap="round" stroke-linejoin="round" stroke-width="3"/>
        </g>
      </g>
    </g>
  </g>
</svg>
