<svg xmlns="http://www.w3.org/2000/svg" viewBox="0 0 25.67 20.21">
  <title>down-arrows</title>
  <g id="Layer_2" data-name="Layer 2">
    <g id="image">
      <g>
        <polyline points="1.5 11.62 12.83 18.71 24.17 11.62" fill="none" stroke="#fff" stroke-linecap="round" stroke-linejoin="round" stroke-width="3"/>
        <polyline points="1.5 1.5 12.83 8.59 24.17 1.5" fill="none" stroke="#fff" stroke-linecap="round" stroke-linejoin="round" stroke-width="3"/>
      </g>
    </g>
  </g>
</svg>
