<svg id="Layer_1" data-name="Layer 1" xmlns="http://www.w3.org/2000/svg" viewBox="0 0 153 153">
  <title>pete-icon</title>
  <g id="image">
    <g>
      <path d="M129.51,241.69V164.4c0-7.21-10.09-20-17.3-20h0c-3.46,0-2.1,1.19-2.1,4.66v92.63C110.11,245.16,129.51,245.16,129.51,241.69Z" fill="#fff" stroke="#2093cd" stroke-miterlimit="10" stroke-width="3"/>
      <polygon points="71.95 120.42 72.54 138.25 93.33 138.82 93.67 119.26 71.95 120.42" fill="#fff" stroke="#2093cd" stroke-miterlimit="10" stroke-width="3"/>
      <path d="M80.85,123.94c-14.82.66-31-4.61-33.24-28.37L43.16,60A27.07,27.07,0,0,1,65.85,29.3l21.42-3.21A27.07,27.07,0,0,1,118,48.8l3.41,47c1.28,13.46-11.83,23.54-20.59,25-4.31,3.08-5.59,5.53-10.2,5.86C85.74,127,81.59,123.9,80.85,123.94Z" fill="#fff" stroke="#2093cd" stroke-miterlimit="10" stroke-width="3"/>
      <path d="M81.43,103.75s8.87,5.31,16.19-1.1" fill="none" stroke="#2093cd" stroke-linecap="round" stroke-miterlimit="10" stroke-width="3"/>
      <path d="M86.46,111.79a12.9,12.9,0,0,0,8.1-.55" fill="none" stroke="#2093cd" stroke-linecap="round" stroke-miterlimit="10" stroke-width="3"/>
      <path d="M84.35,69.77,85,78.61A13.2,13.2,0,0,1,72.9,92.79l-2,.15A13.2,13.2,0,0,1,56.74,80.81L56,72" fill="#fff" stroke="#2093cd" stroke-miterlimit="10" stroke-width="3"/>
      <path d="M123,67.59l.61,7.85a14.19,14.19,0,0,1-13,15.25h0a14.19,14.19,0,0,1-15.22-13l-.61-7.85" fill="#fff" stroke="#2093cd" stroke-miterlimit="10" stroke-width="3"/>
      <line x1="91.79" y1="70.14" x2="126.65" y2="67.28" fill="none" stroke="#2093cd" stroke-miterlimit="10" stroke-width="3"/>
      <ellipse cx="78.45" cy="81.74" rx="2.36" ry="2.66" transform="translate(-14.53 17.01) rotate(-11.33)" fill="#2093cd"/>
      <ellipse cx="111.08" cy="79.1" rx="2.36" ry="2.66" transform="translate(-13.37 23.36) rotate(-11.33)" fill="#2093cd"/>
      <path d="M95.33,68.91,97.18,89a6.6,6.6,0,0,1-5.93,7.17h0a6.6,6.6,0,0,1-7.17-5.93" fill="#fff" stroke="#2093cd" stroke-miterlimit="10" stroke-width="3"/>
      <line x1="83.52" y1="71.59" x2="94.46" y2="70.82" fill="none" stroke="#2093cd" stroke-miterlimit="10" stroke-width="3"/>
      <line x1="45.58" y1="73.77" x2="85.65" y2="70.46" fill="none" stroke="#2093cd" stroke-miterlimit="10" stroke-width="3"/>
      <path d="M39.2,92.5s-6.33-8.83-.53-13.84,6.25-2.56,6.25-2.56l2.83,17.65S40.82,94.24,39.2,92.5Z" fill="#7c66a7" stroke="#2093cd" stroke-miterlimit="10" opacity="0.34" style="isolation: isolate"/>
      <path d="M42.29,107.65S55,105.9,50.45,84.45c5-11.59,2.48-32.27,1.14-39.4,8.12-8.38,41,9.23,63-4.64,8.58-18.08-6.51-26.72-18.73-27-2.25,0-3.27.1-.76,1.82l3.35,3.21S64.84,16.3,52.91,30c-1.52-4.59-2.21-9.17-4.07-7.56-2.34,2-5.19,7.42-1.71,12.22-2.12-4-10-3.26-11.23-2.35-4.15,3.2,1.44,4.82,5.43,6.73C35.61,43.14,29,49.55,29.12,63.88c.18,15.48,8.5,29.55,13.3,36.4C38.35,105,42.29,107.65,42.29,107.65Z" fill="#fff" stroke="#2093cd" stroke-linecap="round" stroke-linejoin="round" stroke-width="3"/>
      <path d="M40.89,240.43H121.5V181.87l-.41-17.2C120.55,150.26,114,143,103,139.28c-6-2-15.19-.92-20.77-.85-5.31.07-15.31-1.24-21.46,1.12-10.77,4.15-18.28,5.84-20,21.75Z" fill="#fff" stroke="#2093cd" stroke-miterlimit="10" stroke-width="3"/>
      <path d="M99.1,240.09,97.91,139.21s-8.59-.71-15.65-.78-15.7.67-15.7.67L70.2,239.41" fill="#fff" stroke="#2093cd" stroke-miterlimit="10" stroke-width="3"/>
      <polyline points="103.87 228.36 109.98 182.81 104.52 176.22 110.14 167.17 104.87 139.48" fill="none" stroke="#2093cd" stroke-linecap="round" stroke-linejoin="round" stroke-width="3"/>
      <polyline points="62.36 228.36 56.24 182.81 61.71 176.22 56.09 167.17 61.35 139.48" fill="none" stroke="#2093cd" stroke-linecap="round" stroke-linejoin="round" stroke-width="3"/>
      <path d="M52.59,144.4a124.4,124.4,0,0,0-3.91,21.1c-.75,10,2.12,25.82,2.12,25.82L41.52,193S37.62,152.44,52.59,144.4Z" fill="#7c66a7" stroke="#2093cd" stroke-miterlimit="10" opacity="0.34" style="isolation: isolate"/>
      <path d="M44.47,248H37.66a6.31,6.31,0,0,1-6.3-6.3V164.4c0-7.21,11.36-21.64,18.57-21.64h0c3.46,0,.83,2.83.83,6.3v92.63A6.31,6.31,0,0,1,44.47,248Z" fill="#fff" stroke="#2093cd" stroke-miterlimit="10" stroke-width="3"/>
      <path d="M47.75,93.75c-6.63.94-11.55-2.47-12.23-7.32s3.12-9.3,9.75-10.24" fill="#fff" stroke="#2093cd" stroke-miterlimit="10" stroke-width="3"/>
      <polyline points="82.25 138.43 92.51 147.02 95.94 141.28 96.84 140.03 96.68 131.76 82.08 137.63 67.9 132.35 67.48 138.82 68.11 139.03 68.11 139.03 73.09 147.02 82.25 138.43" fill="#fff" stroke="#2093cd" stroke-linecap="round" stroke-linejoin="round" stroke-width="3"/>
      <line x1="83.39" y1="139.57" x2="85.13" y2="240.09" fill="none" stroke="#2093cd" stroke-linecap="round" stroke-linejoin="round" stroke-width="3"/>
    </g>
  </g>
</svg>
