<svg xmlns="http://www.w3.org/2000/svg" xmlns:xlink="http://www.w3.org/1999/xlink" viewBox="0 0 687 301.63">
  <defs>
    <clipPath id="clip-path">
      <rect x="-34.5" y="-131.95" width="800" height="432.96" fill="none"/>
    </clipPath>
  </defs>
  <title>year-end-review</title>
  <g style="isolation: isolate">
    <g id="background">
      <rect x="-34.5" y="-131.95" width="800" height="432.96" fill="#8dcecf"/>
    </g>
    <g id="image">
      <rect x="319.33" y="229.97" width="30.77" height="23.9" rx="10.59" ry="10.59" fill="#bc724c" stroke="#135182" stroke-miterlimit="10" stroke-width="2.66"/>
      <g clip-path="url(#clip-path)">
        <g>
          <path d="M628.18,57.86c-6.55,6.16-76.07,13.53-86.49-17.27C536.33,24.76,557.33-6,617.92,4.34,657.12,11,661.72,35.54,664,49.48c15.45,23.05,37.36,102.35,1,130.38-23,17.75-85.14,21.08-111.79,2-12.88-9.24-3.66-46.06-6.53-70.73-1.23-10.55-7.39-27.22-7.59-33.43-.39-12.5,2.49-20.5,9.54-27.16" fill="#7d614e" stroke="#165183" stroke-miterlimit="10" stroke-width="3.06"/>
          <path d="M557.79,244.76V173.88c0-14.58,12.17-21.91,26.51-26.51,0,0,15.64-6,21.89-5.93,6.08,0,25.36,5.93,25.36,5.93,14.67,4.18,26.51,11.93,26.51,26.51v89.34" fill="#487aaf" stroke="#165183" stroke-miterlimit="10" stroke-width="3.06"/>
          <path d="M594.94,420.14V267.38c0-5.75-3.36-10.45-7.46-10.45h-3.56c-4.1,0-7.46,4.7-7.46,10.45v156" fill="#bb7e6f" stroke="#135182" stroke-miterlimit="10" stroke-width="3.06"/>
          <path d="M638.92,420.14V267.38c0-5.75-3.36-10.45-7.46-10.45H627.9c-4.1,0-7.46,4.7-7.46,10.45V424.29" fill="#bb7e6f" stroke="#135182" stroke-miterlimit="10" stroke-width="3.06"/>
          <polygon points="574.31 408.49 598.92 409.4 601.48 273.61 612.2 274.09 617.95 409.9 641.86 410.85 641.77 244.87 574.31 245.07 574.31 408.49" fill="#e27457" stroke="#165183" stroke-miterlimit="10" stroke-width="3.06"/>
          <polygon points="628.15 253.86 629.68 408.49 641.86 410.85 639.76 253.86 628.15 253.86" fill="#7c66a7" opacity="0.34" style="mix-blend-mode: multiply"/>
          <path d="M584.71,149.44s5.06,16.43,22.33,15.17,25.28-18.33,25.28-18.33-17.28-4.85-24.86-4.42S584.71,149.44,584.71,149.44Z" fill="#bb7e6f" stroke="#135182" stroke-miterlimit="10" stroke-width="3.06"/>
          <polyline points="596.5 147.75 594.4 124.16 612.74 121.35 615.46 146.07" fill="#bb7e6f" stroke="#135182" stroke-linecap="round" stroke-miterlimit="10" stroke-width="3.06"/>
          <path d="M648.08,71.71a10.58,10.58,0,1,1-1.13,21.13" fill="#bb7e6f" stroke="#135182" stroke-miterlimit="10" stroke-width="3.06"/>
          <path d="M559.58,90.14a10.3,10.3,0,1,1-.86-20.58" fill="#bb7e6f" stroke="#135182" stroke-miterlimit="10" stroke-width="3.06"/>
          <path d="M602.89,133.92l-5.06-.32c-19.47-.3-40.3-17.2-40-36.67l1.71-39.19c32.81,8.49,56.57,1.52,74.15-7.24,2.59-1.29,5.81,0,7.72,2.15a19.76,19.76,0,0,0,8,5.64l-2.22,40C646.84,117.76,626.69,134.12,602.89,133.92Z" fill="#bb7e6f" stroke="#135182" stroke-miterlimit="10" stroke-width="3.06"/>
          <path d="M590.77,108.92s10.83,6.16,21.43-1" fill="none" stroke="#135182" stroke-linecap="round" stroke-miterlimit="10" stroke-width="3.06"/>
          <path d="M599.05,117.11a18.14,18.14,0,0,0,6.56,0" fill="none" stroke="#135182" stroke-linecap="round" stroke-miterlimit="10" stroke-width="3.06"/>
          <path d="M572.16,83.94s2-6.59,9.2-5.95A8.22,8.22,0,0,1,589,84.85" fill="none" stroke="#165183" stroke-linecap="round" stroke-miterlimit="10" stroke-width="3.06"/>
          <path d="M608.55,83.44s1.13-5.23,8.66-5.17c5.55,0,8.19,6.08,8.19,6.08" fill="none" stroke="#165183" stroke-linecap="round" stroke-miterlimit="10" stroke-width="3.06"/>
          <line x1="597.1" y1="96.85" x2="604.21" y2="96.73" fill="none" stroke="#165183" stroke-linecap="round" stroke-miterlimit="10" stroke-width="3.06"/>
          <line x1="576.46" y1="173.45" x2="577.48" y2="244.23" fill="#d6792d" stroke="#165183" stroke-linecap="round" stroke-miterlimit="10" stroke-width="3.06"/>
          <path d="M560.64,10.09s-16.8,16.34-3.56,31S616.4,50.94,634,39.25c5.13,9.81,23.13,16.91,23.13,16.91S652,60,647,59.26c0,0,7.34,46.42-10.78,62.09,2.71-31.2,3.13-63.13,2.71-63.56-14.53,12.4-44.71,16.52-73.48,11.29-1.39,7.75-2.54,32.84-2.54,32.84s4.44,18.65,14.37,24.6,12.78,5.88,20.56,7.08,18.26-.71,18.26-.71,18.71-7.84,23.11-14.87a66.36,66.36,0,0,0,7.46-16.53c1.07-3.54.28-8.65.28-8.65l6.82-1.4s12.18,23.92,11.81,37.14c-.78,27.41-3.43,33-9.36,36.1-13-18.61-38.13-19.87-38.13-19.87l-1.95-.28-1.18-3.1-18.49,1.72h0s-7.52,3.45-12.17,4.21-22.43,12.12-22.43,12.12L558,170l-1.7,12s-6.87.44-6.8-10,5.94-35.76,6.57-46.17-10-31.49-11.5-40.79c-3.47-21.49,4.51-31.7,4.51-31.7s-10.49-12-9.5-17S550.27,9.18,560.64,10.09Z" fill="#7c66a7" opacity="0.34" style="mix-blend-mode: multiply"/>
          <polygon points="610.33 152.58 615.38 170.04 634.17 146.69 622.25 138.02 610.33 152.58" fill="#edeced" stroke="#165183" stroke-linecap="round" stroke-linejoin="round" stroke-width="3.06"/>
          <rect x="639.76" y="268" width="19.15" height="24.72" rx="6.06" ry="6.06" transform="translate(1322.14 498.47) rotate(174.61)" fill="#bb7e6f" stroke="#135182" stroke-miterlimit="10" stroke-width="3.06"/>
          <rect x="556.83" y="268" width="19.15" height="24.72" rx="6.06" ry="6.06" transform="translate(28.84 -51.97) rotate(5.39)" fill="#bb7e6f" stroke="#135182" stroke-miterlimit="10" stroke-width="3.06"/>
          <polyline points="638.92 173.56 638.92 271.93 658.07 271.93 658.07 184.63" fill="#487aaf" stroke="#165183" stroke-miterlimit="10" stroke-width="3.06"/>
          <polyline points="557.89 181.99 557.89 271.93 576.53 271.93 576.53 187.15" fill="#487aaf" stroke="#165183" stroke-miterlimit="10" stroke-width="3.06"/>
          <rect x="577.48" y="244.82" width="61.44" height="9.04" transform="translate(1216.4 498.69) rotate(-180)" fill="#edeced" stroke="#165183" stroke-linecap="round" stroke-linejoin="round" stroke-width="3.06"/>
          <path d="M646.94,271.93h10V166.56l-12.31-13.89-10.46-6-1.85,6.56s14.62,7.63,14.62,17.46C649.36,203.3,646.94,271.93,646.94,271.93Z" fill="#7c66a7" opacity="0.34" style="mix-blend-mode: multiply"/>
          <path d="M590.89,146.07s-29,7.18-31.46,25.28c4.37-3.61,8.85-9.77,12.74-12.64,5.33-3.93,20.41-8.15,20.41-8.15Z" fill="#7c66a7" opacity="0.34" style="mix-blend-mode: multiply"/>
          <polygon points="600.93 153.25 595.89 170.71 579.63 149.89 586.9 138.69 600.93 153.25" fill="#edeced" stroke="#165183" stroke-linecap="round" stroke-linejoin="round" stroke-width="3.06"/>
          <path d="M569.92,176.61h6.72a0,0,0,0,1,0,0v88.6a6.72,6.72,0,0,1-6.72,6.72h0a0,0,0,0,1,0,0V176.61A0,0,0,0,1,569.92,176.61Z" transform="translate(1146.56 448.54) rotate(-180)" fill="#7c66a7" opacity="0.34" style="mix-blend-mode: multiply"/>
          <path d="M622.25,253.86h15.28V175.09h0a6.72,6.72,0,0,0-6.72,6.72Z" fill="#7c66a7" opacity="0.34" style="mix-blend-mode: multiply"/>
          <polygon points="590.41 269.57 587.25 408.49 599.42 410.85 601.48 273.61 612.2 274.09 608.2 268.47 590.41 269.57" fill="#7c66a7" opacity="0.34" style="mix-blend-mode: multiply"/>
        </g>
        <g>
          <g>
            <path d="M412,257V194.8c0-5.8-13.16-16.08-22.56-16.08h0c-4.52,0-2.74,1-2.74,3.75V257C386.68,259.75,412,259.75,412,257Z" fill="#487aaf" stroke="#165183" stroke-miterlimit="10" stroke-width="2.36"/>
            <polygon points="393.32 179.55 393.32 299.64 387.61 295.58 387.61 178.72 393.32 179.55" fill="#7c66a7" opacity="0.34" style="mix-blend-mode: multiply"/>
            <rect x="304.85" y="190.99" width="94.33" height="128.9" rx="31.97" ry="31.97" fill="#a4a4a3" stroke="#165183" stroke-miterlimit="10" stroke-width="3"/>
            <polygon points="336.91 147.44 337.69 170.69 364.79 171.43 365.24 145.93 336.91 147.44" fill="#bc724c" stroke="#135182" stroke-miterlimit="10" stroke-width="3"/>
            <path d="M348.52,152c-19.33.86-40.4-6-43.34-37l-5.8-46.35a35.3,35.3,0,0,1,29.59-40l27.93-4.19a35.3,35.3,0,0,1,40,29.59l4.45,61.25c1.67,17.55-15.43,30.69-26.85,32.61-5.61,4-7.29,7.21-13.3,7.64C354.9,156,349.48,152,348.52,152Z" fill="#bc724c" stroke="#135182" stroke-miterlimit="10" stroke-width="3"/>
            <path d="M349.28,125.71s11.57,6.93,21.12-1.43" fill="none" stroke="#135182" stroke-linecap="round" stroke-miterlimit="10" stroke-width="3"/>
            <path d="M355.84,136.19a16.82,16.82,0,0,0,10.56-.71" fill="none" stroke="#135182" stroke-linecap="round" stroke-miterlimit="10" stroke-width="3"/>
            <path d="M353.22,81.38,354,92.92a17.21,17.21,0,0,1-16,18.31l-2.59.17a17.21,17.21,0,0,1-18.31-16l-.76-11.54" fill="#eec6b9" stroke="#135182" stroke-miterlimit="10" stroke-width="3"/>
            <path d="M403.69,79.11l.68,10.25A18.5,18.5,0,0,1,387.13,109h0a18.5,18.5,0,0,1-19.69-17.24l-.68-10.25" fill="#eec6b9" stroke="#135182" stroke-miterlimit="10" stroke-width="3"/>
            <line x1="362.92" y1="81.98" x2="408.42" y2="78.76" fill="none" stroke="#135182" stroke-miterlimit="10" stroke-width="3"/>
            <ellipse cx="344.39" cy="100.01" rx="3.08" ry="3.47" transform="translate(-12.94 69.59) rotate(-11.33)" fill="#135182"/>
            <ellipse cx="381.92" cy="98.56" rx="3.08" ry="3.47" transform="translate(-11.92 76.93) rotate(-11.33)" fill="#135182"/>
            <path d="M367.4,80.27l2.41,26.24a8.61,8.61,0,0,1-7.74,9.35h0a8.61,8.61,0,0,1-9.35-7.74" fill="#bc724c" stroke="#135182" stroke-miterlimit="10" stroke-width="3"/>
            <line x1="352.11" y1="83.75" x2="366.39" y2="82.9" fill="none" stroke="#135182" stroke-miterlimit="10" stroke-width="3"/>
            <line x1="302.61" y1="86.03" x2="354.91" y2="82.3" fill="none" stroke="#135182" stroke-miterlimit="10" stroke-width="3"/>
            <path d="M294.21,111s-8.25-11.52-.69-18,8.15-3.34,8.15-3.34l3.68,23S296.33,113.31,294.21,111Z" fill="#7c66a7" opacity="0.34" style="mix-blend-mode: multiply"/>
            <path d="M298.24,130.79s16.51-2.28,10.63-30.25c6.49-15.12,3.23-42.08,1.48-51.38,10.58-10.93,53.51,12,82.09-6.06C403.64,19.53,384,8.27,368,7.94c-2.94-.06-4.27.13-1,2.37l4.37,4.19s-43.77-2.82-59.33,15c-2-6-2.88-12-5.31-9.86-3,2.64-6.77,9.68-2.22,15.94-2.77-5.27-13.1-4.25-14.64-3.06-5.42,4.17,1.88,6.28,7.08,8.78-7.46,5.33-16.14,13.69-15.92,32.38.23,20.19,11.08,38.53,17.34,47.47C293.11,127.28,298.24,130.79,298.24,130.79Z" fill="#35312f" stroke="#165183" stroke-linecap="round" stroke-linejoin="round" stroke-width="3"/>
            <path d="M392.45,43.11s3.29,26.25-76.44,5.36c6,24.58.27,75,2.71,79.56,5.69,10.6,17.78,18,34,17.9,24.76-.22,41.22-7.53,41.22-7.53s-6.29,7.33-19.7,9.77c-1.32.24-5,3.25-6.82,3.41-1,.08-1.2,3.86-2.28,3.91-2.59.13-5.31.2-8.11.26-6.2.13-12.77.19-19,.56-.47,0-.67-5-1.13-5.09-11.62-1.72-21.72-8.66-24.48-13.5-6.27-11-21-36.49-20.51-51.1,0-1.39,0-15.72,0-17.26.25-14.56,15.63-27.63,19.17-32.37C330.33,44.32,378.73,43.41,392.45,43.11Z" fill="#7c66a7" opacity="0.34" style="mix-blend-mode: multiply"/>
            <path d="M296.42,303.93H401.53V227.57L401,205.15c-.71-18.79-9.25-28.24-23.56-33.12-7.84-2.67-19.8-1.2-27.09-1.11-6.93.09-20-1.61-28,1.47-14.11,5.42-23.86,7.61-26.17,28.36Z" fill="#487aaf" stroke="#165183" stroke-miterlimit="10" stroke-width="3"/>
            <path d="M372.32,303.49l-1.56-131.55s-11.21-.93-20.41-1-20.47.88-20.47.88l4.74,130.8" fill="#edeced" stroke="#165183" stroke-miterlimit="10" stroke-width="3"/>
            <polyline points="378.54 288.2 386.51 228.79 379.38 220.2 386.72 208.4 379.85 172.3" fill="none" stroke="#165183" stroke-linecap="round" stroke-linejoin="round" stroke-width="3"/>
            <polyline points="324.4 288.2 316.43 228.79 323.56 220.2 316.23 208.4 323.1 172.3" fill="none" stroke="#165183" stroke-linecap="round" stroke-linejoin="round" stroke-width="3"/>
            <path d="M311.67,178.72s-4.12,14.46-5.09,27.52,2.77,33.66,2.77,33.66l-12.11,2.23S292.15,189.2,311.67,178.72Z" fill="#7c66a7" opacity="0.34" style="mix-blend-mode: multiply"/>
            <path d="M305.36,112.66c-8.64,1.22-15.05-3.22-15.95-9.54S293.48,91,302.12,89.77" fill="#bc724c" stroke="#135182" stroke-miterlimit="10" stroke-width="3"/>
            <polygon points="315.61 176.19 315.61 236.71 309.68 238.19 310.18 178.72 315.61 176.19" fill="#7c66a7" opacity="0.34" style="mix-blend-mode: multiply"/>
            <polygon points="378.28 172.3 378.28 303.49 371.35 303.96 370.76 171.94 378.28 172.3" fill="#7c66a7" opacity="0.34" style="mix-blend-mode: multiply"/>
            <polygon points="335.83 164.41 339.76 304.75 334.06 304.75 329.88 171.8 331.91 163.55 335.83 164.41" fill="#7c66a7" opacity="0.34" style="mix-blend-mode: multiply"/>
            <polyline points="350.35 170.92 363.72 182.13 368.79 174 369.37 173.01 369.17 162.23 350.13 169.88 331.64 163 331.21 171.03 331.91 171.72 338.4 182.13 350.35 170.92" fill="#fff" stroke="#165183" stroke-linecap="round" stroke-linejoin="round" stroke-width="3"/>
            <line x1="351.84" y1="172.41" x2="354.1" y2="303.49" fill="none" stroke="#165183" stroke-linecap="round" stroke-linejoin="round" stroke-width="3"/>
            <circle cx="358.64" cy="194.25" r="1.86" fill="#165183"/>
            <circle cx="358.64" cy="217.37" r="1.86" fill="#165183"/>
            <circle cx="358.64" cy="240.5" r="1.86" fill="#165183"/>
            <circle cx="358.64" cy="263.62" r="1.86" fill="#165183"/>
            <path d="M284,257V204.8c0-9.4,14.82-28.21,24.22-28.21h0c4.52,0,1.08,3.69,1.08,8.21V238s6.94-.49,18.89-3.8c2.88,10.39,7.84,22.44,1.7,23.69C284.88,266.92,284,261.48,284,257Z" fill="#487aaf" stroke="#165183" stroke-linejoin="round" stroke-width="3"/>
            <polygon points="291.87 188.03 291.87 262.75 285.03 260.58 283.99 204.8 291.87 188.03" fill="#7c66a7" opacity="0.34" style="mix-blend-mode: multiply"/>
            <rect x="321.52" y="233.15" width="30.77" height="23.9" rx="10.59" ry="10.59" fill="#bc724c" stroke="#135182" stroke-miterlimit="10" stroke-width="2.66"/>
          </g>
          <g>
            <rect x="275.67" y="254.64" width="79.29" height="11.48" rx="5.74" ry="5.74" fill="#888" stroke="#165183" stroke-miterlimit="10" stroke-width="3"/>
            <path d="M477.15,193.13a11.6,11.6,0,0,0-10-14.58l-87,0c-7.21-.72-14.53,5.58-17.66,15l-21.58,72.57H460.07Z" fill="#a4a4a3" stroke="#165183" stroke-miterlimit="10" stroke-width="3"/>
          </g>
        </g>
        <g>
          <g>
            <path d="M83.93,90.67s-7.29,54.12-16.65,69.73c-11.45-1-29.4,11.45-29.66,36.95-.27,26.53,22.38,36.95,38,36.95s118.91-20.82,118.91-20.82,27.06-40.59-8.33-47.88c-11.45-4.16-9.37-76-9.37-76Z" fill="#2b2826" stroke="#165183" stroke-miterlimit="10" stroke-width="3"/>
            <path d="M88.88,115s-2.08,41.63-7.63,52c-11.8,1.39-33.3,7.63-30.53,32.61s39.55,27.75,39.55,27.75l104.25-13.88s9.66-21.38,9.77-30.65c.12-10-9.6-15.15-18.1-17.23-4.34-1.39-13.36-22.2-13.36-22.2L109,105.94Z" fill="#7c66a7" opacity="0.34" style="mix-blend-mode: multiply"/>
            <path d="M154.67,327.73h-35c-20.28,0-36.87-15.28-36.87-34v-69c0-18.68,16.59-34,36.87-34h35c20.28,0,30,15.28,30,34l-.15,69C184.48,312.45,175,327.73,154.67,327.73Z" fill="#a4a4a3" stroke="#165183" stroke-miterlimit="10" stroke-width="3"/>
            <path d="M79,305.37V201.79a30.36,30.36,0,0,1,30.27-30.27H163.2c16.65,0,23.2,13.62,23.2,30.27V305.37Z" fill="#d6792d" stroke="#165183" stroke-miterlimit="10" stroke-width="3"/>
            <polyline points="155.75 171.85 165.89 172.11 140.65 215.56 115.42 171.85 125.3 172.11" fill="#edeced" stroke="#165183" stroke-linejoin="round" stroke-width="3"/>
            <polyline points="149.5 174.97 149.5 153.64 130.77 151.56 130.77 174.46" fill="#e4997d" stroke="#135182" stroke-miterlimit="10" stroke-width="3"/>
            <path d="M146.26,54.26h0a47.88,47.88,0,0,1,47.88,47.88v25.45a33.87,33.87,0,0,1-33.87,33.87h-28a33.87,33.87,0,0,1-33.87-33.87V102.13a47.88,47.88,0,0,1,47.88-47.88Z" transform="translate(288.45 221.01) rotate(-177.89)" fill="#e4997d" stroke="#135182" stroke-miterlimit="10" stroke-width="3"/>
            <path d="M136,73s-14.05,38.77-55.16,42.41c-3.64-39.55,18.45-77.13,53-81.07S190.35,50.45,197,77.77c9.24,1.45,18.29,6.62,15.49,13.42-3.3,8-13.57,5-21.86,4.16C157.41,92.05,136,73,136,73Z" fill="#2b2826" stroke="#165183" stroke-miterlimit="10" stroke-width="3"/>
            <circle cx="171.57" cy="113.8" r="3.94" transform="translate(51.54 281.07) rotate(-87.89)" fill="#165183"/>
            <circle cx="142.04" cy="111.57" r="3.94" transform="matrix(0.04, -1, 1, 0.04, 25.32, 249.42)" fill="#165183"/>
            <path d="M165.77,133.68s-12.36,6.59-23-2.24" fill="none" stroke="#135182" stroke-linecap="round" stroke-miterlimit="10" stroke-width="3"/>
            <polyline points="154.71 176.8 154.71 167.17 126.08 167.17 126.08 176.8" fill="#edeced" stroke="#165183" stroke-linecap="round" stroke-miterlimit="10" stroke-width="3"/>
            <line x1="140.65" y1="169.25" x2="140.65" y2="209.32" fill="none" stroke="#165183" stroke-linecap="round" stroke-miterlimit="10" stroke-width="3"/>
            <line x1="147.16" y1="173.41" x2="154.7" y2="177.32" fill="none" stroke="#165183" stroke-linecap="round" stroke-miterlimit="10" stroke-width="3"/>
            <line x1="133.89" y1="173.41" x2="126.34" y2="177.32" fill="none" stroke="#165183" stroke-linecap="round" stroke-miterlimit="10" stroke-width="3"/>
            <line x1="160.04" y1="122.75" x2="154.06" y2="122.43" fill="none" stroke="#165183" stroke-linecap="round" stroke-miterlimit="10" stroke-width="3"/>
            <path d="M139.53,77.49s.69,13.18,47.88,26.37c-.29,10.81-3.57,30.58-14.57,39.55-18.73,15.26-43,11.8-58.28,3.47,17.35,18.73,45.79,15.26,63.83,2.08s17.35-52.73,17.35-52.73Z" fill="#7c66a7" opacity="0.34" style="mix-blend-mode: multiply"/>
            <path d="M182.72,196.8l4.69,18.11-1,90.47h-9.62s-1.21-75.41-1.21-86.27C175.58,210.56,182.72,196.8,182.72,196.8Z" fill="#7c66a7" opacity="0.34" style="mix-blend-mode: multiply"/>
            <path d="M137.45,74s-5.55,34-37.47,50c-2.78-1.39-1.77-12.16-1.77-12.16S129.81,94.14,137.45,74Z" fill="#7c66a7" opacity="0.34" style="mix-blend-mode: multiply"/>
            <path d="M212.47,91.19s-24.37-1.91-45.88-9.54-33.3-20.12-33.3-20.12S118.73,91.64,108.3,99c-11.8,8.33-27.49,16.39-27.49,16.39s33.74-7.37,40-17.78S137.45,74,137.45,74,179.94,106.28,212.47,91.19Z" fill="#7c66a7" opacity="0.34" style="mix-blend-mode: multiply"/>
            <polygon points="86.32 270.38 85.95 305.37 78.99 305.37 79.67 270.44 86.32 270.38" fill="#7c66a7" opacity="0.34" style="mix-blend-mode: multiply"/>
            <path d="M106.49,194V187.8s9.31,8.35,8.89,37.5c-.27,18.74,1.28,80.61,1.28,80.61l-12.24-.66Z" fill="#7c66a7" opacity="0.34" style="mix-blend-mode: multiply"/>
            <path d="M105.24,189.18v52.13L126.08,240c0,5.21,1.3,15.89,1.3,15.89S88.74,271,82.76,268.31s-6.4-14.49-6.4-14.49v-52c0-13,6.4-29,24.23-29" fill="#d6792d" stroke="#165183" stroke-linecap="round" stroke-linejoin="round" stroke-width="3"/>
            <path d="M121.15,237.33,137,233.25c3.24-.83,6.24.91,6.62,3.85L145.56,252a6.14,6.14,0,0,1-4.17,6.21l-16.12,2.61c-3.29,1.25-6.68-.29-7.28-3.3l-1.67-13.4C115.74,241.22,117.92,238.16,121.15,237.33Z" fill="#e4997d" stroke="#135182" stroke-miterlimit="10" stroke-width="3"/>
          </g>
          <g>
            <rect x="68.16" y="254.82" width="79.29" height="11.48" rx="5.74" ry="5.74" fill="#888" stroke="#165183" stroke-miterlimit="10" stroke-width="3"/>
            <path d="M269.64,193.31a11.6,11.6,0,0,0-10-14.58l-87,0c-7.21-.72-14.53,5.58-17.66,15L133.36,266.3H252.55Z" fill="#a4a4a3" stroke="#165183" stroke-miterlimit="10" stroke-width="3"/>
          </g>
        </g>
        <g>
          <rect x="389.41" y="317.29" width="106.15" height="21" transform="translate(114.7 770.28) rotate(-90)" fill="#957e6e" stroke="#165183" stroke-miterlimit="10" stroke-width="3"/>
          <rect x="9.54" y="317.29" width="106.15" height="21" transform="translate(-265.17 390.41) rotate(-90)" fill="#957e6e" stroke="#165183" stroke-miterlimit="10" stroke-width="3"/>
          <rect x="2.12" y="266.3" width="500.87" height="21" fill="#b19b8a" stroke="#165183" stroke-miterlimit="10" stroke-width="3"/>
        </g>
      </g>
    </g>
  </g>
</svg>
